{
    "aax": { "skip": true },
    "binancecoinm": { "skip": true },
    "bitcoincom": { "skip": true },
    "bitmart": { "skip": true },
    "bitmex": { "skip": true },
    "bitfinex": { "skip": true },
    "currencycom": { "skip": true },
    "cdax": { "skip": true },
    "dsx": { "skip": true },
    "gateio": { "skip": true },
    "huobipro": { "skip": true },
    "idex": { "skip": true },
    "kucoin": { "skip": true },
    "ndax": { "skip": true },
    "okcoin": { "skip": true },
    "okex": { "skip": true },
    "poloniex": { "skip": true },
    "ripio": { "skip": true },
    "upbit": { "skip": true },
    "zipmex": { "skip": true }
}
